C:\Users\JULIOCESARRodrigues\eclipse-workspace\crossover-journal\src\main\java\com\crossover\trial\journals\repository\UserRepository.java
C:\Users\JULIOCESARRodrigues\eclipse-workspace\crossover-journal\src\main\java\com\crossover\trial\journals\service\UserServiceImpl.java
C:\Users\JULIOCESARRodrigues\eclipse-workspace\crossover-journal\src\main\java\com\crossover\trial\journals\controller\PublisherController.java
C:\Users\JULIOCESARRodrigues\eclipse-workspace\crossover-journal\src\main\java\com\crossover\trial\journals\Application.java
C:\Users\JULIOCESARRodrigues\eclipse-workspace\crossover-journal\src\main\java\com\crossover\trial\journals\service\JournalDailyDigestServiceImpl.java
C:\Users\JULIOCESARRodrigues\eclipse-workspace\crossover-journal\src\main\java\com\crossover\trial\journals\service\UserService.java
C:\Users\JULIOCESARRodrigues\eclipse-workspace\crossover-journal\src\main\java\com\crossover\trial\journals\repository\PublisherRepository.java
C:\Users\JULIOCESARRodrigues\eclipse-workspace\crossover-journal\src\main\java\com\crossover\trial\journals\service\SubscriptionServiceImpl.java
C:\Users\JULIOCESARRodrigues\eclipse-workspace\crossover-journal\src\main\java\com\crossover\trial\journals\service\JournalMailerService.java
C:\Users\JULIOCESARRodrigues\eclipse-workspace\crossover-journal\src\main\java\com\crossover\trial\journals\service\SubscriptionMailerService.java
C:\Users\JULIOCESARRodrigues\eclipse-workspace\crossover-journal\src\main\java\com\crossover\trial\journals\config\JobScheduler.java
C:\Users\JULIOCESARRodrigues\eclipse-workspace\crossover-journal\src\main\java\com\crossover\trial\journals\service\JournalService.java
C:\Users\JULIOCESARRodrigues\eclipse-workspace\crossover-journal\src\main\java\com\crossover\trial\journals\repository\JournalRepository.java
C:\Users\JULIOCESARRodrigues\eclipse-workspace\crossover-journal\src\main\java\com\crossover\trial\journals\model\User.java
C:\Users\JULIOCESARRodrigues\eclipse-workspace\crossover-journal\src\main\java\com\crossover\trial\journals\service\CurrentUserDetailsService.java
C:\Users\JULIOCESARRodrigues\eclipse-workspace\crossover-journal\src\main\java\com\crossover\trial\journals\rest\CategoryRestService.java
C:\Users\JULIOCESARRodrigues\eclipse-workspace\crossover-journal\src\main\java\com\crossover\trial\journals\rest\JournalRestService.java
C:\Users\JULIOCESARRodrigues\eclipse-workspace\crossover-journal\src\main\java\com\crossover\trial\journals\model\Publisher.java
C:\Users\JULIOCESARRodrigues\eclipse-workspace\crossover-journal\src\main\java\com\crossover\trial\journals\model\Role.java
C:\Users\JULIOCESARRodrigues\eclipse-workspace\crossover-journal\src\main\java\com\crossover\trial\journals\config\MvcConfig.java
C:\Users\JULIOCESARRodrigues\eclipse-workspace\crossover-journal\src\main\java\com\crossover\trial\journals\service\ServiceException.java
C:\Users\JULIOCESARRodrigues\eclipse-workspace\crossover-journal\src\main\java\com\crossover\trial\journals\service\JournalServiceImpl.java
C:\Users\JULIOCESARRodrigues\eclipse-workspace\crossover-journal\src\main\java\com\crossover\trial\journals\model\Category.java
C:\Users\JULIOCESARRodrigues\eclipse-workspace\crossover-journal\src\main\java\com\crossover\trial\journals\service\CurrentUser.java
C:\Users\JULIOCESARRodrigues\eclipse-workspace\crossover-journal\src\main\java\com\crossover\trial\journals\model\Journal.java
C:\Users\JULIOCESARRodrigues\eclipse-workspace\crossover-journal\src\main\java\com\crossover\trial\journals\config\WebSecurityConfig.java
C:\Users\JULIOCESARRodrigues\eclipse-workspace\crossover-journal\src\main\java\com\crossover\trial\journals\dto\SubscriptionDTO.java
C:\Users\JULIOCESARRodrigues\eclipse-workspace\crossover-journal\src\main\java\com\crossover\trial\journals\repository\SubscriptionRepository.java
C:\Users\JULIOCESARRodrigues\eclipse-workspace\crossover-journal\src\main\java\com\crossover\trial\journals\service\JournalMailerServiceImpl.java
C:\Users\JULIOCESARRodrigues\eclipse-workspace\crossover-journal\src\main\java\com\crossover\trial\journals\repository\CategoryRepository.java
C:\Users\JULIOCESARRodrigues\eclipse-workspace\crossover-journal\src\main\java\com\crossover\trial\journals\service\SubscriptionService.java
C:\Users\JULIOCESARRodrigues\eclipse-workspace\crossover-journal\src\main\java\com\crossover\trial\journals\model\Subscription.java
C:\Users\JULIOCESARRodrigues\eclipse-workspace\crossover-journal\src\main\java\com\crossover\trial\journals\controller\JournalController.java
